\boolfalse {citerequest}\boolfalse {citetracker}\boolfalse {pagetracker}\boolfalse {backtracker}\relax 
\defcounter {refsection}{0}\relax 
\contentsline {chapter}{\numberline {1}Sample}{4}{chapter.1}%
\defcounter {refsection}{0}\relax 
\contentsline {section}{\numberline {1.1}Example}{4}{section.1.1}%
\defcounter {refsection}{0}\relax 
\contentsline {chapter}{\numberline {2}Stuff}{5}{chapter.2}%
\defcounter {refsection}{0}\relax 
\contentsline {section}{\numberline {2.1}Hardboiled}{5}{section.2.1}%
\defcounter {refsection}{0}\relax 
\contentsline {section}{\numberline {2.2}Complex Analysis}{5}{section.2.2}%
\defcounter {refsection}{0}\relax 
\contentsline {chapter}{\numberline {3}Beach}{6}{chapter.3}%
\defcounter {refsection}{0}\relax 
\contentsline {section}{\numberline {3.1}Swimming}{6}{section.3.1}%
\defcounter {refsection}{0}\relax 
\contentsline {section}{\numberline {3.2}Sunscreen}{6}{section.3.2}%
\defcounter {refsection}{0}\relax 
\contentsline {chapter}{Appendix \numberline {A}Stuff}{7}{appendix.a.A}%
\defcounter {refsection}{0}\relax 
\contentsline {chapter}{Appendix \numberline {B}Things}{8}{appendix.a.B}%
\defcounter {refsection}{0}\relax 
\contentsline {chapter}{Bibliography}{9}{appendix*.2}%
